<?xml version="1.0" encoding="utf-8"?>
<!-- Generator: Adobe Illustrator 23.0.1, SVG Export Plug-In . SVG Version: 6.00 Build 0)  -->
<svg version="1.1" xmlns="http://www.w3.org/2000/svg" xmlns:xlink="http://www.w3.org/1999/xlink" x="0px" y="0px"
	 viewBox="0 0 189.98 190" style="enable-background:new 0 0 189.98 190;" xml:space="preserve">
<style type="text/css">
	.st0{display:none;}
	.st1{display:inline;}
	.st2{fill:#FFFFFF;}
	.st3{opacity:0.7;fill:#FFFFFF;}
	.st4{opacity:0.3;fill:#FFFFFF;}
</style>
<g id="bg">
</g>
<g id="logo_x5F_compound" class="st0">
	<g class="st1">
		<g>
			<path class="st2" d="M62.97,46.66c1.15-0.7,2.39-1.26,3.71-1.69c0.61-0.2,1.24-0.36,1.88-0.49c-0.24-0.01-0.48-0.02-0.72-0.02
				c-4.35,0-8.53,2.19-9.44,2.74c-2.71,1.48-2.11,7.67,0.56,11.9c1.16,1.84,12.88,23.66,14.6,53.11
				c1.53,26.15-22.31,38.2-28.91,39.99c-2.12,0.57-3.97,1.53-5.84,2.06c-0.17,0.03-0.33,0.05-0.49,0.07
				c1.59-0.12,3.28-0.32,5.06-0.61c12.56-2.29,34.13-12.39,34.81-35.66c0.87-29.48-13.51-57.66-14.67-59.5
				C60.86,54.33,60.26,48.13,62.97,46.66z M46.23,147.74c-2.03,0.86-3.99,1.54-5.87,2.07c-0.17,0.03-0.33,0.05-0.49,0.07
				c1.6-0.12,3.3-0.32,5.09-0.61c1.88-0.53,4.87-1.69,7.17-3.23C57.12,142.69,68.2,134.5,69.8,119c3.03-29.51-13.59-58-14.76-59.84
				c-2.69-4.25-3.29-10.48-0.57-11.97c1.16-0.71,2.4-1.27,3.73-1.7c0.61-0.2,1.24-0.36,1.89-0.5c-0.24-0.01-0.48-0.02-0.72-0.02
				c-4.38,0-8.58,2.2-9.5,2.76c-2.72,1.48-2.12,7.71,0.57,11.97c1.17,1.85,16.31,30.21,14.76,59.84
				C64.37,135.27,51.76,145.36,46.23,147.74z M189.82,94.52c-1.18,1.78-5.4,6.25-8.26,7.68c-3.06,1.54-7.84,1.67-11.02-1.68
				c-32.49-34.09-68.44-55.77-91.47-55.78c-2.68,0-5.17,0.35-7.42,1.08c-1.38,0.45-2.68,1.03-3.89,1.77
				c-2.83,1.54-2.21,8.03,0.59,12.45c1.22,1.92,14.5,27.36,13.67,58.23c-0.59,21.94-20.71,33.15-29.9,36.22
				c-11.28,3.78-20.89,2.49-24.98,1.81c-4.05-0.66-6.25-1.63-6.25-1.63c0.58,0.72,1.2,1.4,1.8,2.1
				c16.03,18.67,39.11,31.05,65.11,32.93c2.29,0.17,4.6,0.28,6.93,0.28c51.3,0,93.1-40.78,95.02-91.81
				c0.02-0.57,0.04-1.14,0.05-1.71C189.81,95.82,190.19,93.98,189.82,94.52z M25.37,133.25c-1.55-2.82-4.04-4.25-7.04-4.01
				c-1.3,0.1-2.46,0.51-4.41,1.54l3.72,6.79l2.65-1.47l-1.54-2.8c0.7-0.26,1.08-0.31,1.58-0.25c0.9,0.15,1.67,0.75,2.19,1.7
				c0.53,0.97,0.65,1.93,0.33,2.85c-0.38,1.18-1.34,2.28-2.54,2.94c-2.36,1.3-4.91,0.81-5.98-1.15c-0.72-1.32-0.55-2.6,0.54-3.98
				l-3.12-2.52c-1.84,2.63-1.99,5.16-0.45,7.97c2.33,4.25,6.77,5.57,10.96,3.26C26.39,141.84,27.65,137.41,25.37,133.25z
				 M17.95,116.8l-3.12,1.09l1.53,4.43l-11.02,3.85l1.28,3.68l14.14-4.94L17.95,116.8z M10.09,117.75c4.6-0.78,7.43-4.83,6.64-9.49
				c-0.37-2.18-1.29-3.89-2.78-5.17c-1.78-1.53-4.14-2.15-6.49-1.76c-2.04,0.35-3.81,1.42-5.02,3.05c-1.39,1.86-1.87,4.02-1.46,6.49
				c0.35,2.07,1.34,3.91,2.77,5.11C5.54,117.47,7.88,118.13,10.09,117.75z M4.71,110.23c-0.39-2.31,1.16-4.49,3.43-4.88
				c2.3-0.39,4.47,1.16,4.86,3.47c0.39,2.33-1.16,4.49-3.5,4.89C7.27,114.09,5.09,112.52,4.71,110.23z M15.13,92.02
				c0.09-3.2-1.48-5.22-4.1-5.3c-1.14-0.03-2.19,0.3-2.83,0.89c-0.51,0.48-0.74,0.99-1,2.07C6.56,88.5,5.68,88,4.17,87.96
				c-2.51-0.07-3.94,1.38-4.02,4.13L0,97.88l14.96,0.4L15.13,92.02z M6,94.14l-2.92-0.08l0.02-0.72c0.03-1.19,0.54-1.81,1.51-1.79
				c0.94,0.03,1.44,0.67,1.41,1.86L6,94.14z M12.04,94.3L8.9,94.22l0.02-0.79c0.03-1.28,0.09-1.62,0.32-2.07
				c0.24-0.45,0.76-0.72,1.32-0.71c1.1,0.03,1.55,0.85,1.5,2.79L12.04,94.3z M15.97,82.58l-2.34-1.54l1.09-5.28l2.75-0.42l0.84-4.08
				L2.5,73.75l-0.86,4.17l13.5,8.69L15.97,82.58z M10.95,79.38L6.6,76.79l5-0.59L10.95,79.38z M21.97,62.21l-3.08-1.17l-1.66,4.38
				L6.32,61.27l-1.38,3.65l14,5.33L21.97,62.21z M16.35,50.57c1.12,0.72,2.16,0.91,3.14,0.6c0.67-0.21,1.25-0.62,2.56-1.76
				c1.43-1.25,2.03-1.48,2.71-1.04c0.74,0.47,0.83,1.41,0.21,2.38c-0.62,0.97-1.59,1.62-3.14,2.08l1.75,3.1
				c1.78-0.75,3.26-1.98,4.21-3.47c0.93-1.46,1.34-3.02,1.14-4.43c-0.19-1.33-1.01-2.47-2.45-3.39c-1.87-1.2-3.47-0.95-5.52,0.84
				c-1.38,1.2-1.52,1.3-2.05,1.46c-0.27,0.09-0.59,0.05-0.82-0.1c-0.62-0.4-0.71-1.31-0.2-2.11c0.48-0.76,1.17-1.25,2.23-1.62
				l-1.72-2.95c-1.47,0.85-2.73,2.02-3.57,3.35C13.21,46.09,13.82,48.94,16.35,50.57z M34.28,42.93l-4.52-4.18l3.82-4.16l4.52,4.18
				l2.63-2.87L29.72,25.71l-2.63,2.87l4.26,3.94l-3.82,4.16l-4.26-3.94l-2.63,2.87l11.01,10.18L34.28,42.93z M44.77,32.67l-0.7-2.72
				l4.33-3.18l2.32,1.54l3.35-2.46l-13.38-8.8l-3.43,2.51l4.19,15.54L44.77,32.67z M45.8,25l-2.61,1.91l-1.5-4.85L45.8,25z
				 M58.6,23.79l-2.5-5.2l5.83,3.58l4.37-2.11l-6.91-3.48c0.71-0.59,1.06-1.01,1.33-1.64c0.45-1.04,0.36-2.4-0.21-3.6
				c-0.54-1.12-1.49-2.01-2.59-2.42c-1.19-0.45-2.37-0.33-3.89,0.41l-5.44,2.64l6.51,13.54L58.6,23.79z M53.39,12.96l0.65-0.31
				c0.67-0.32,1.24-0.43,1.67-0.36c0.52,0.1,1.07,0.51,1.3,1c0.23,0.49,0.22,1.19-0.03,1.64c-0.21,0.4-0.65,0.77-1.32,1.09
				l-0.65,0.31L53.39,12.96z M70.96,18.7l-1.67-6.29l6.55,4.98l4.88-1.31l-8.3-5.96l3.9-8.41l-4.64,1.24l-2.98,7.21L67.1,4.18
				l-3.75,1.01l3.86,14.52L70.96,18.7z M91.61,6.41l3.35,8.7l1.55,0.02l3.72-8.61l0.99,8.67l3.88,0.05l-2.06-15.06l-3.88-0.05
				l-3.31,7.98l-2.93-8.06L89.08,0l-2.72,15l3.86,0.05L91.61,6.41z M113.89,18.03c2.13,0.54,4.07,0.38,5.84-0.48
				c2.11-1.02,3.63-2.94,4.21-5.26c0.5-2.01,0.24-4.08-0.76-5.84c-1.13-2.03-2.91-3.34-5.33-3.95c-2.02-0.51-4.1-0.34-5.77,0.49
				c-2.09,1.03-3.62,2.92-4.17,5.1C106.77,12.65,109.32,16.87,113.89,18.03z M111.83,9.19c0.55-2.21,2.86-3.57,5.11-3.01
				c2.26,0.57,3.63,2.87,3.07,5.12c-0.57,2.27-2.86,3.65-5.12,3.07C112.59,13.8,111.24,11.5,111.83,9.19z M142.33,12.64l-3.81-1.82
				l-7.19,6.7l0.66-9.81l-3.83-1.83l-0.74,16.28l2.74,1.3L142.33,12.64z M143.69,31.88l1.87-2.73l-3.81-2.63l1.46-2.13l3.6,2.49
				l1.87-2.73l-3.6-2.49l1.41-2.06l3.81,2.63l1.87-2.73l-7-4.85l-8.5,12.38L143.69,31.88z M147.55,35.01l7.03-5.16l-3.71,8.55
				l1.09,1.11l8.67-3.5l-5.36,6.86l2.73,2.77l9.08-12.16l-2.73-2.77l-7.94,3.34l3.56-7.8l-2.7-2.74l-12.44,8.75L147.55,35.01z
				 M163.46,54.47l2.74-1.84l-2.57-3.86l2.15-1.44l2.43,3.65l2.74-1.84l-2.43-3.65l2.07-1.39l2.57,3.86l2.74-1.84l-4.72-7.1
				l-12.45,8.35L163.46,54.47z M166.12,59.53l8.38-3.7L169,66.12l1.56,3.57l13.71-6.04l-1.56-3.57l-8.38,3.7l5.5-10.28l-1.56-3.57
				l-13.71,6.05L166.12,59.53z M182.85,71.15l-11.33,2.82l0.93,3.79l11.33-2.82l0.78,3.15l3.2-0.8l-2.47-10.02l-3.2,0.8
				L182.85,71.15z"/>
		</g>
	</g>
</g>
<g id="logo_x5F_transparency">
	<path class="st3" d="M67.84,44.45c-4.35,0-8.53,2.19-9.44,2.74c-2.71,1.48-2.11,7.67,0.56,11.9c1.16,1.84,12.88,23.66,14.6,53.11
		c1.53,26.15-22.31,38.2-28.91,39.99c-2.12,0.57-3.97,1.53-5.84,2.06c-0.17,0.03-0.33,0.05-0.49,0.07c1.59-0.12,3.28-0.32,5.06-0.61
		c12.56-2.29,34.13-12.39,34.81-35.66c0.87-29.49-13.51-57.66-14.67-59.5c-2.68-4.23-3.27-10.42-0.56-11.9
		c1.15-0.7,2.39-1.26,3.71-1.69c0.61-0.2,1.24-0.36,1.88-0.49C68.32,44.46,68.08,44.45,67.84,44.45"/>
	<path class="st4" d="M59.37,44.97c-4.38,0-8.58,2.2-9.5,2.76c-2.72,1.48-2.12,7.71,0.57,11.97c1.17,1.85,16.31,30.21,14.76,59.84
		c-0.83,15.73-13.44,25.82-18.97,28.2c-2.03,0.86-3.99,1.54-5.87,2.07c-0.17,0.03-0.33,0.05-0.49,0.07c1.6-0.12,3.3-0.32,5.09-0.61
		c1.88-0.53,4.87-1.69,7.17-3.23C57.12,142.69,68.2,134.5,69.8,119c3.03-29.51-13.59-58-14.76-59.84
		c-2.69-4.25-3.29-10.48-0.57-11.97c1.16-0.71,2.4-1.27,3.73-1.7c0.61-0.2,1.24-0.36,1.89-0.5C59.85,44.98,59.61,44.97,59.37,44.97"
		/>
	<path class="st2" d="M189.82,94.52c-1.18,1.78-5.4,6.25-8.26,7.68c-3.06,1.54-7.84,1.67-11.02-1.68
		c-32.49-34.09-68.44-55.77-91.47-55.78c-2.68,0-5.17,0.35-7.42,1.08c-1.38,0.45-2.68,1.03-3.89,1.77
		c-2.83,1.54-2.21,8.03,0.59,12.45c1.22,1.92,14.5,27.36,13.67,58.23c-0.59,21.94-20.71,33.15-29.9,36.22
		c-11.28,3.78-20.89,2.49-24.98,1.81c-4.05-0.66-6.25-1.63-6.25-1.63c0.58,0.72,1.2,1.4,1.8,2.1
		c16.03,18.67,39.11,31.05,65.11,32.93c2.29,0.17,4.6,0.28,6.93,0.28c51.3,0,93.1-40.78,95.02-91.81c0.02-0.57,0.04-1.14,0.05-1.71
		C189.81,95.82,190.19,93.98,189.82,94.52z"/>
	<path class="st2" d="M13.92,130.78c1.95-1.03,3.11-1.43,4.41-1.54c2.99-0.24,5.49,1.19,7.04,4.01c2.28,4.17,1.02,8.59-3.11,10.87
		c-4.19,2.31-8.63,0.99-10.96-3.26c-1.54-2.8-1.38-5.33,0.45-7.97l3.12,2.52c-1.09,1.37-1.26,2.65-0.54,3.98
		c1.07,1.95,3.62,2.45,5.98,1.15c1.2-0.66,2.16-1.76,2.54-2.94c0.32-0.92,0.2-1.88-0.33-2.85c-0.52-0.95-1.29-1.55-2.19-1.7
		c-0.49-0.06-0.87-0.01-1.58,0.25l1.54,2.8l-2.65,1.47L13.92,130.78z"/>
	<path class="st2" d="M16.37,122.32l-1.53-4.43l3.12-1.09l2.81,8.11l-14.14,4.94l-1.28-3.68L16.37,122.32z"/>
	<path class="st2" d="M2.44,104.38c1.21-1.62,2.98-2.7,5.02-3.05c2.35-0.4,4.7,0.23,6.49,1.76c1.49,1.28,2.42,2.99,2.78,5.17
		c0.79,4.67-2.04,8.71-6.64,9.49c-2.21,0.38-4.55-0.28-6.33-1.78c-1.43-1.2-2.42-3.04-2.77-5.11C0.57,108.4,1.05,106.24,2.44,104.38
		z M9.5,113.72c2.35-0.4,3.89-2.56,3.5-4.89c-0.39-2.31-2.56-3.86-4.86-3.47c-2.28,0.39-3.82,2.57-3.43,4.88
		C5.09,112.52,7.27,114.09,9.5,113.72z"/>
	<path class="st2" d="M0,97.88l0.16-5.79c0.07-2.75,1.5-4.2,4.02-4.13C5.68,88,6.56,88.5,7.2,89.69c0.25-1.08,0.49-1.59,1-2.07
		c0.64-0.59,1.69-0.92,2.83-0.89c2.63,0.07,4.19,2.1,4.1,5.3l-0.17,6.26L0,97.88z M6.02,93.42c0.03-1.19-0.47-1.84-1.41-1.86
		c-0.96-0.03-1.47,0.59-1.51,1.79l-0.02,0.72L6,94.14L6.02,93.42z M12.06,93.45c0.05-1.94-0.4-2.76-1.5-2.79
		c-0.56-0.02-1.09,0.26-1.32,0.71c-0.24,0.44-0.29,0.78-0.32,2.07L8.9,94.22l3.14,0.09L12.06,93.45z"/>
	<path class="st2" d="M13.63,81.04l2.34,1.54l-0.83,4.04l-13.5-8.69l0.86-4.17l15.8-2.49l-0.84,4.08l-2.75,0.42L13.63,81.04z
		 M6.6,76.79l4.35,2.58l0.65-3.18L6.6,76.79z"/>
	<path class="st2" d="M17.23,65.42l1.66-4.38l3.08,1.17l-3.03,8.03l-14-5.33l1.38-3.65L17.23,65.42z"/>
	<path class="st2" d="M20.13,43.13c-1.06,0.36-1.75,0.86-2.23,1.62c-0.51,0.8-0.42,1.71,0.2,2.11c0.23,0.15,0.55,0.19,0.82,0.1
		c0.53-0.17,0.67-0.26,2.05-1.46c2.05-1.79,3.65-2.05,5.52-0.84c1.44,0.92,2.26,2.06,2.45,3.39c0.19,1.41-0.21,2.97-1.14,4.43
		c-0.96,1.5-2.43,2.72-4.21,3.47l-1.75-3.1c1.54-0.45,2.52-1.11,3.14-2.08c0.62-0.97,0.52-1.91-0.21-2.38
		c-0.68-0.44-1.28-0.21-2.71,1.04c-1.31,1.14-1.89,1.54-2.56,1.76c-0.97,0.31-2.02,0.12-3.14-0.6c-2.53-1.63-3.14-4.48-1.51-7.04
		c0.85-1.33,2.1-2.5,3.57-3.35L20.13,43.13z"/>
	<path class="st2" d="M31.35,32.52l-4.26-3.94l2.63-2.87L40.73,35.9l-2.63,2.87l-4.52-4.18l-3.82,4.16l4.52,4.18l-2.63,2.87
		L20.64,35.61l2.63-2.87l4.26,3.94L31.35,32.52z"/>
	<path class="st2" d="M44.07,29.95l0.7,2.72l-3.32,2.43l-4.19-15.54l3.43-2.51l13.38,8.8l-3.35,2.46l-2.31-1.54L44.07,29.95z
		 M41.69,22.06l1.5,4.85L45.8,25L41.69,22.06z"/>
	<path class="st2" d="M66.3,20.06l-4.37,2.11L56.1,18.6l2.5,5.2l-3.5,1.69l-6.51-13.54l5.44-2.64c1.52-0.73,2.7-0.86,3.89-0.41
		c1.1,0.42,2.05,1.31,2.59,2.42c0.58,1.2,0.66,2.56,0.21,3.6c-0.27,0.63-0.62,1.05-1.33,1.64L66.3,20.06z M55.65,16.01
		c0.67-0.32,1.11-0.69,1.32-1.09c0.26-0.45,0.27-1.16,0.03-1.64c-0.23-0.49-0.78-0.9-1.3-1c-0.43-0.07-1,0.04-1.67,0.36l-0.65,0.31
		l1.62,3.37L55.65,16.01z"/>
	<path class="st2" d="M71.68,2.95l4.64-1.24l-3.9,8.41l8.3,5.96l-4.88,1.31l-6.55-4.99l1.67,6.29l-3.75,1.01L63.35,5.18l3.75-1.01
		l1.59,5.99L71.68,2.95z"/>
	<path class="st2" d="M89.08,0l3.84,0.05l2.93,8.06l3.31-7.98l3.88,0.05l2.06,15.06l-3.88-0.05l-0.99-8.67l-3.72,8.61l-1.55-0.02
		l-3.35-8.7l-1.39,8.64L86.36,15L89.08,0z"/>
	<path class="st2" d="M123.18,6.46c0.99,1.76,1.26,3.83,0.76,5.84c-0.58,2.32-2.1,4.23-4.21,5.26c-1.77,0.86-3.7,1.02-5.84,0.48
		c-4.57-1.15-7.12-5.38-5.98-9.93c0.55-2.18,2.09-4.07,4.17-5.1c1.67-0.83,3.75-1.01,5.77-0.49C120.27,3.12,122.05,4.43,123.18,6.46
		z M111.83,9.19c-0.58,2.32,0.77,4.61,3.05,5.19c2.26,0.57,4.55-0.8,5.12-3.07c0.56-2.25-0.8-4.55-3.07-5.12
		C114.69,5.61,112.38,6.98,111.83,9.19z"/>
	<path class="st2" d="M131.32,17.52l7.19-6.7l3.81,1.82l-12.18,10.83l-2.74-1.3l0.74-16.28l3.83,1.83L131.32,17.52z"/>
	<path class="st2" d="M146.51,19.6l-1.41,2.06l3.6,2.49l-1.87,2.73l-3.6-2.49l-1.46,2.13l3.81,2.63l-1.87,2.73l-7.01-4.85l8.5-12.38
		l7,4.85l-1.87,2.73L146.51,19.6z"/>
	<path class="st2" d="M157.27,23.51l2.7,2.74l-3.56,7.8l7.94-3.34l2.73,2.77L158,45.65l-2.73-2.77l5.36-6.86l-8.67,3.5l-1.09-1.11
		l3.71-8.55l-7.03,5.16l-2.71-2.76L157.27,23.51z"/>
	<path class="st2" d="M170.6,44.1l-2.07,1.39l2.43,3.65l-2.74,1.84l-2.43-3.65l-2.15,1.44l2.57,3.86l-2.74,1.84l-4.72-7.1
		l12.45-8.35l4.72,7.1l-2.74,1.84L170.6,44.1z"/>
	<path class="st2" d="M178.27,49.92l1.56,3.57l-5.5,10.28l8.38-3.7l1.56,3.57l-13.71,6.04L169,66.12l5.51-10.28l-8.38,3.7
		l-1.56-3.57L178.27,49.92z"/>
	<path class="st2" d="M172.45,77.75l-0.93-3.79l11.33-2.82l-0.76-3.08l3.2-0.8l2.47,10.02l-3.2,0.8l-0.78-3.15L172.45,77.75z"/>
	<path class="st2" d="M13.92,130.78c1.95-1.03,3.11-1.43,4.41-1.54c2.99-0.24,5.49,1.19,7.04,4.01c2.28,4.17,1.02,8.59-3.11,10.87
		c-4.19,2.31-8.63,0.99-10.96-3.26c-1.54-2.8-1.38-5.33,0.45-7.97l3.12,2.52c-1.09,1.37-1.26,2.65-0.54,3.98
		c1.07,1.95,3.62,2.45,5.98,1.15c1.2-0.66,2.16-1.76,2.54-2.94c0.32-0.92,0.2-1.88-0.33-2.85c-0.52-0.95-1.29-1.55-2.19-1.7
		c-0.49-0.06-0.87-0.01-1.58,0.25l1.54,2.8l-2.65,1.47L13.92,130.78z"/>
	<path class="st2" d="M16.37,122.32l-1.53-4.43l3.12-1.09l2.81,8.11l-14.14,4.94l-1.28-3.68L16.37,122.32z"/>
	<path class="st2" d="M2.44,104.38c1.21-1.62,2.98-2.7,5.02-3.05c2.35-0.4,4.7,0.23,6.49,1.76c1.49,1.28,2.42,2.99,2.78,5.17
		c0.79,4.67-2.04,8.71-6.64,9.49c-2.21,0.38-4.55-0.28-6.33-1.78c-1.43-1.2-2.42-3.04-2.77-5.11C0.57,108.4,1.05,106.24,2.44,104.38
		z M9.5,113.72c2.35-0.4,3.89-2.56,3.5-4.89c-0.39-2.31-2.56-3.86-4.86-3.47c-2.28,0.39-3.82,2.57-3.43,4.88
		C5.09,112.52,7.27,114.09,9.5,113.72z"/>
	<path class="st2" d="M0,97.88l0.16-5.79c0.07-2.75,1.5-4.2,4.02-4.13C5.68,88,6.56,88.5,7.2,89.69c0.25-1.08,0.49-1.59,1-2.07
		c0.64-0.59,1.69-0.92,2.83-0.89c2.63,0.07,4.19,2.1,4.1,5.3l-0.17,6.26L0,97.88z M6.02,93.42c0.03-1.19-0.47-1.84-1.41-1.86
		c-0.96-0.03-1.47,0.59-1.51,1.79l-0.02,0.72L6,94.14L6.02,93.42z M12.06,93.45c0.05-1.94-0.4-2.76-1.5-2.79
		c-0.56-0.02-1.09,0.26-1.32,0.71c-0.24,0.44-0.29,0.78-0.32,2.07L8.9,94.22l3.14,0.09L12.06,93.45z"/>
	<path class="st2" d="M13.63,81.04l2.34,1.54l-0.83,4.04l-13.5-8.69l0.86-4.17l15.8-2.49l-0.84,4.08l-2.75,0.42L13.63,81.04z
		 M6.6,76.79l4.35,2.58l0.65-3.18L6.6,76.79z"/>
	<path class="st2" d="M17.23,65.42l1.66-4.38l3.08,1.17l-3.03,8.03l-14-5.33l1.38-3.65L17.23,65.42z"/>
	<path class="st2" d="M20.13,43.13c-1.06,0.36-1.75,0.86-2.23,1.62c-0.51,0.8-0.42,1.71,0.2,2.11c0.23,0.15,0.55,0.19,0.82,0.1
		c0.53-0.17,0.67-0.26,2.05-1.46c2.05-1.79,3.65-2.05,5.52-0.84c1.44,0.92,2.26,2.06,2.45,3.39c0.19,1.41-0.21,2.97-1.14,4.43
		c-0.96,1.5-2.43,2.72-4.21,3.47l-1.75-3.1c1.54-0.45,2.52-1.11,3.14-2.08c0.62-0.97,0.52-1.91-0.21-2.38
		c-0.68-0.44-1.28-0.21-2.71,1.04c-1.31,1.14-1.89,1.54-2.56,1.76c-0.97,0.31-2.02,0.12-3.14-0.6c-2.53-1.63-3.14-4.48-1.51-7.04
		c0.85-1.33,2.1-2.5,3.57-3.35L20.13,43.13z"/>
	<path class="st2" d="M31.35,32.52l-4.26-3.94l2.63-2.87L40.73,35.9l-2.63,2.87l-4.52-4.18l-3.82,4.16l4.52,4.18l-2.63,2.87
		L20.64,35.61l2.63-2.87l4.26,3.94L31.35,32.52z"/>
	<path class="st2" d="M44.07,29.95l0.7,2.72l-3.32,2.43l-4.19-15.54l3.43-2.51l13.38,8.8l-3.35,2.46l-2.31-1.54L44.07,29.95z
		 M41.69,22.06l1.5,4.85L45.8,25L41.69,22.06z"/>
	<path class="st2" d="M66.3,20.06l-4.37,2.11L56.1,18.6l2.5,5.2l-3.5,1.69l-6.51-13.54l5.44-2.64c1.52-0.73,2.7-0.86,3.89-0.41
		c1.1,0.42,2.05,1.31,2.59,2.42c0.58,1.2,0.66,2.56,0.21,3.6c-0.27,0.63-0.62,1.05-1.33,1.64L66.3,20.06z M55.65,16.01
		c0.67-0.32,1.11-0.69,1.32-1.09c0.26-0.45,0.27-1.16,0.03-1.64c-0.23-0.49-0.78-0.9-1.3-1c-0.43-0.07-1,0.04-1.67,0.36l-0.65,0.31
		l1.62,3.37L55.65,16.01z"/>
	<path class="st2" d="M71.68,2.95l4.64-1.24l-3.9,8.41l8.3,5.96l-4.88,1.31l-6.55-4.99l1.67,6.29l-3.75,1.01L63.35,5.18l3.75-1.01
		l1.59,5.99L71.68,2.95z"/>
	<path class="st2" d="M89.08,0l3.84,0.05l2.93,8.06l3.31-7.98l3.88,0.05l2.06,15.06l-3.88-0.05l-0.99-8.67l-3.72,8.61l-1.55-0.02
		l-3.35-8.7l-1.39,8.64L86.36,15L89.08,0z"/>
	<path class="st2" d="M123.18,6.46c0.99,1.76,1.26,3.83,0.76,5.84c-0.58,2.32-2.1,4.23-4.21,5.26c-1.77,0.86-3.7,1.02-5.84,0.48
		c-4.57-1.15-7.12-5.38-5.98-9.93c0.55-2.18,2.09-4.07,4.17-5.1c1.67-0.83,3.75-1.01,5.77-0.49C120.27,3.12,122.05,4.43,123.18,6.46
		z M111.83,9.19c-0.58,2.32,0.77,4.61,3.05,5.19c2.26,0.57,4.55-0.8,5.12-3.07c0.56-2.25-0.8-4.55-3.07-5.12
		C114.69,5.61,112.38,6.98,111.83,9.19z"/>
	<path class="st2" d="M131.32,17.52l7.19-6.7l3.81,1.82l-12.18,10.83l-2.74-1.3l0.74-16.28l3.83,1.83L131.32,17.52z"/>
	<path class="st2" d="M146.51,19.6l-1.41,2.06l3.6,2.49l-1.87,2.73l-3.6-2.49l-1.46,2.13l3.81,2.63l-1.87,2.73l-7.01-4.85l8.5-12.38
		l7,4.85l-1.87,2.73L146.51,19.6z"/>
	<path class="st2" d="M157.27,23.51l2.7,2.74l-3.56,7.8l7.94-3.34l2.73,2.77L158,45.65l-2.73-2.77l5.36-6.86l-8.67,3.5l-1.09-1.11
		l3.71-8.55l-7.03,5.16l-2.71-2.76L157.27,23.51z"/>
	<path class="st2" d="M170.6,44.1l-2.07,1.39l2.43,3.65l-2.74,1.84l-2.43-3.65l-2.15,1.44l2.57,3.86l-2.74,1.84l-4.72-7.1
		l12.45-8.35l4.72,7.1l-2.74,1.84L170.6,44.1z"/>
	<path class="st2" d="M178.27,49.92l1.56,3.57l-5.5,10.28l8.38-3.7l1.56,3.57l-13.71,6.04L169,66.12l5.51-10.28l-8.38,3.7
		l-1.56-3.57L178.27,49.92z"/>
	<path class="st2" d="M172.45,77.75l-0.93-3.79l11.33-2.82l-0.76-3.08l3.2-0.8l2.47,10.02l-3.2,0.8l-0.78-3.15L172.45,77.75z"/>
</g>
</svg>
